TRANSFER curve tracer, ig-spice 
#           V(1)       V(6)       I(VPU)     I(VPD)     id(MPU)    id(MPD)   
 0.         0.         0.         0.         0.         0.         0.        
 0.1        0.         0.         14.442p    7.0874n   -14.442p    7.0886n   
 0.2        0.         0.         49.499p    7.9575n   -49.499p    7.9534n   
 0.3        0.         0.         169.51p    8.0158n   -169.51p    8.0174n   
 0.4        0.         0.         580.77p    8.088n    -580.77p    8.0774n   
 0.5        0.         0.         1.9898n    8.1379n   -1.9898n    8.1341n   
 0.6        0.         0.         6.815n     8.1934n   -6.815n     8.188n    
 0.7        0.         0.         23.332n    8.2379n   -23.332n    8.2396n   
 0.8        0.         0.         79.851n    8.2934n   -79.851n    8.2891n   
 0.9        0.         0.         401.31n    0.        -401.31n    8.3368n   
 1.         0.         0.         1.1045u    0.        -1.1045u    8.3829n   
 1.1        0.         0.         2.1635u    0.        -2.1635u    8.4275n   
 1.2        0.         0.         3.5838u    0.        -3.5838u    8.4709n   
 1.3        0.         0.         5.3703u    0.        -5.3703u    8.5132n   
 1.4        0.         0.         7.5273u    0.        -7.5273u    8.5544n   
 1.5        0.         0.         10.059u    0.        -10.059u    8.5946n   
 1.6        0.         0.         12.968u    0.        -12.968u    8.634n    
 1.7        0.         0.         16.258u    0.        -16.258u    8.6725n   
 1.8        0.         0.         19.93u     0.        -19.93u     8.7103n   
 1.9        0.         0.         23.988u    0.        -23.988u    8.7474n   
 2.         0.         0.         28.433u    0.        -28.433u    8.7839n   
 2.1        0.         0.         33.266u    0.        -33.266u    8.8197n   
 2.2        0.         0.         38.489u    0.        -38.489u    8.855n    
 2.3        0.         0.         43.262u    0.        -43.262u    8.8898n   
 2.4        0.         0.         48.106u    0.        -48.106u    8.924n    
 2.5        0.         0.         53.171u    0.        -53.171u    8.9578n   
 2.6        0.         0.         58.456u    0.        -58.456u    8.9912n   
 2.7        0.         0.         63.957u    0.        -63.957u    9.0242n   
 2.8        0.         0.         69.674u    0.        -69.674u    9.0567n   
 2.9        0.         0.         75.604u    0.        -75.604u    9.0889n   
 3.         0.         0.         81.747u    0.        -81.747u    9.1207n   
 3.1        0.         0.         88.101u    0.        -88.101u    9.1523n   
 3.2        0.         0.         94.664u    0.        -94.664u    9.1834n   
 3.3        0.         0.         101.44u    0.        -101.44u    9.2143n   
 3.4        0.         0.         108.42u    0.        -108.42u    9.2449n   
 3.5        0.         0.         115.6u     0.        -115.6u     9.2753n   
 3.6        0.         0.         123.u      0.        -123.u      9.3053n   
 3.7        0.         0.         130.59u    0.        -130.59u    9.3351n   
 3.8        0.         0.         138.4u     0.        -138.4u     9.3647n   
 3.9        0.         0.         146.41u    0.        -146.41u    9.3941n   
 4.         0.         0.         154.62u    0.        -154.62u    9.4232n   
 4.1        0.         0.         163.03u    0.        -163.03u    9.4521n   
 4.2        0.         0.         171.65u    0.        -171.65u    9.4809n   
 4.3        0.         0.         180.48u    0.        -180.48u    9.5094n   
 4.4        0.         0.         189.5u     0.        -189.5u     9.5377n   
 4.5        0.         0.         198.74u    0.        -198.74u    9.5659n   
 4.6        0.         0.         208.17u    0.        -208.17u    9.5939n   
 4.7        0.         0.         217.81u    0.        -217.81u    9.6217n   
 4.8        0.         0.         227.65u    0.        -227.65u    9.6494n   
 4.9        0.         0.         237.69u    0.        -237.69u    9.6769n   
 5.         0.         0.         247.94u    0.        -247.94u    9.7043n   
 0.         0.5        0.        -50.81E-18  0.         50.81E-18  0.        
 0.1        0.5        0.         171.37f    69.832n   -171.37f    69.833n   
 0.2        0.5        0.         390.f      78.354n   -390.f      78.351n   
 0.3        0.5        0.         803.15f    78.981n   -803.15f    78.981n   
 0.4        0.5        0.         1.8829p    79.575n   -1.8829p    79.575n   
 0.5        0.5        0.         5.2452p    80.141n   -5.2452p    80.137n   
 0.6        0.5        0.         16.419p    80.68n    -16.419p    80.673n   
 0.7        0.5        0.         54.317p    81.18n    -54.317p    81.186n   
 0.8        0.5        0.         183.6p     81.679n   -183.6p     81.679n   
 0.9        0.5        0.         625.35p    82.157n   -625.35p    82.156n   
 1.         0.5        0.         2.1352n    82.623n   -2.1352n    82.617n   
 1.1        0.5        0.         7.2954n    83.067n   -7.2954n    83.064n   
 1.2        0.5        0.         24.93n     83.511n   -24.93n     83.498n   
 1.3        0.5        0.         85.188n    83.933n   -85.188n    83.922n   
 1.4        0.5        0.         428.63n    84.333n   -428.63n    84.335n   
 1.5        0.5        0.         1.1575u    84.754n   -1.1575u    84.739n   
 1.6        0.5        0.         2.2486u    85.154n   -2.2486u    85.134n   
 1.7        0.5        0.         3.7078u    85.532n   -3.7078u    85.521n   
 1.8        0.5        0.         5.5398u    85.887n   -5.5398u    85.901n   
 1.9        0.5        0.         7.7494u    86.287n   -7.7494u    86.274n   
 2.         0.5        0.         10.34u     86.642n   -10.34u     86.641n   
 2.1        0.5        0.         13.316u    86.997n   -13.316u    87.001n   
 2.2        0.5        0.         16.68u     87.352n   -16.68u     87.356n   
 2.3        0.5        0.         20.434u    87.708n   -20.434u    87.706n   
 2.4        0.5        0.         24.581u    88.063n   -24.581u    88.051n   
 2.5        0.5        0.         29.123u    88.418n   -29.123u    88.392n   
 2.6        0.5        0.         34.06u     88.729n   -34.06u     88.728n   
 2.7        0.5        0.         39.394u    89.04n    -39.394u    89.06n    
 2.8        0.5        0.         44.246u    89.395n   -44.246u    89.388n   
 2.9        0.5        0.         49.191u    89.75n    -49.191u    89.712n   
 3.         0.5        0.         54.363u    90.017n   -54.363u    90.033n   
 3.1        0.5        0.         59.758u    90.328n   -59.758u    90.35n    
 3.2        0.5        0.         65.375u    90.683n   -65.375u    90.665n   
 3.3        0.5        0.         71.212u    90.994n   -71.212u    90.976n   
 3.4        0.5        0.         77.268u    91.26n    -77.268u    91.284n   
 3.5        0.5        0.         83.541u    91.616n   -83.541u    91.59n    
 3.6        0.5        0.         90.03u     91.926n   -90.03u     91.893n   
 3.7        0.5        0.         96.733u    92.237n   -96.733u    92.194n   
 3.8        0.5        0.         103.65u    92.459n   -103.65u    92.492n   
 3.9        0.5        0.         110.78u    92.815n   -110.78u    92.788n   
 4.         0.5        0.         118.12u    93.126n   -118.12u    93.082n   
 4.1        0.5        0.         125.68u    93.436n   -125.68u    93.373n   
 4.2        0.5        0.         133.44u    93.703n   -133.44u    93.663n   
 4.3        0.5        0.         141.41u    93.969n   -141.41u    93.951n   
 4.4        0.5        0.         149.6u     94.236n   -149.6u     94.236n   
 4.5        0.5        0.         157.99u    94.502n   -157.99u    94.52n    
 4.6        0.5        0.         166.59u    94.946n   -166.59u    94.803n   
 4.7        0.5        0.         175.41u    95.124n   -175.41u    95.083n   
 4.8        0.5        0.         184.43u    95.39n    -184.43u    95.362n   
 4.9        0.5        0.         193.66u    95.746n   -193.66u    95.64n    
 5.         0.5        0.         203.09u    95.923n   -203.09u    95.916n   
 0.         1.         0.        -139.1E-18 -536.E-21   139.1E-18 -536.E-21  
 0.1        1.         0.         138.61f    687.79n   -138.61f    687.79n   
 0.2        1.         0.         277.46f    771.8n    -277.46f    771.8n    
 0.3        1.         0.         416.76f    778.03n   -416.76f    778.03n   
 0.4        1.         0.         557.59f    783.91n   -557.59f    783.91n   
 0.5        1.         0.         703.63f    789.5n    -703.63f    789.5n    
 0.6        1.         0.         867.54f    794.85n   -867.54f    794.84n   
 0.7        1.         0.         1.0925p    799.96n   -1.0925p    799.97n   
 0.8        1.         0.         1.5263p    804.91n   -1.5263p    804.91n   
 0.9        1.         0.         2.6733p    809.7n    -2.6733p    809.68n   
 1.         1.         0.         6.2572p    814.32n   -6.2572p    814.31n   
 1.1        1.         0.         18.165p    818.81n   -18.165p    818.8n    
 1.2        1.         0.         58.503p    826.07n   -58.503p    826.05n   
 1.3        1.         0.         195.94p    833.56n   -195.94p    833.55n   
 1.4        1.         0.         664.96p    840.88n   -664.96p    840.87n   
 1.5        1.         0.         2.2664n    848.01n   -2.2664n    848.n     
 1.6        1.         0.         7.735n     854.98n   -7.735n     854.98n   
 1.7        1.         0.         26.41n     861.82n   -26.41n     861.81n   
 1.8        1.         0.         90.181n    868.53n   -90.181n    868.5n    
 1.9        1.         0.         454.05n    875.06n   -454.05n    875.06n   
 2.         1.         0.         1.2076u    881.49n   -1.2076u    881.5n    
 2.1        1.         0.         2.3305u    887.87n   -2.3305u    887.83n   
 2.2        1.         0.         3.8283u    894.08n   -3.8283u    894.05n   
 2.3        1.         0.         5.7062u    900.17n   -5.7062u    900.17n   
 2.4        1.         0.         7.969u     906.25n   -7.969u     906.19n   
 2.5        1.         0.         10.621u    912.11n   -10.621u    912.13n   
 2.6        1.         0.         13.665u    917.98n   -13.665u    917.98n   
 2.7        1.         0.         17.104u    923.79n   -17.104u    923.76n   
 2.8        1.         0.         20.942u    929.43n   -20.942u    929.45n   
 2.9        1.         0.         25.18u     935.12n   -25.18u     935.08n   
 3.         1.         0.         29.821u    940.63n   -29.821u    940.64n   
 3.1        1.         0.         34.866u    946.18n   -34.866u    946.13n   
 3.2        1.         0.         40.316u    951.55n   -40.316u    951.56n   
 3.3        1.         0.         45.251u    956.97n   -45.251u    956.93n   
 3.4        1.         0.         50.302u    962.3n    -50.302u    962.25n   
 3.5        1.         0.         55.584u    967.54n   -55.584u    967.51n   
 3.6        1.         0.         61.094u    972.69n   -61.094u    972.72n   
 3.7        1.         0.         66.832u    977.88n   -66.832u    977.88n   
 3.8        1.         0.         72.794u    982.99n   -72.794u    982.99n   
 3.9        1.         0.         78.981u    988.05n   -78.981u    988.06n   
 4.         1.         0.         85.389u    993.07n   -85.389u    993.08n   
 4.1        1.         0.         92.018u    998.05n   -92.018u    998.06n   
 4.2        1.         0.         98.868u    1.003u    -98.868u    1.003u    
 4.3        1.         0.         105.94u    1.0078u   -105.94u    1.0079u   
 4.4        1.         0.         113.22u    1.0128u   -113.22u    1.0128u   
 4.5        1.         0.         120.73u    1.0176u   -120.73u    1.0176u   
 4.6        1.         0.         128.45u    1.0224u   -128.45u    1.0224u   
 4.7        1.         0.         136.38u    1.0271u   -136.38u    1.0271u   
 4.8        1.         0.         144.53u    1.0319u   -144.53u    1.0319u   
 4.9        1.         0.         152.9u     1.0366u   -152.9u     1.0366u   
 5.         1.         0.         161.48u    1.0412u   -161.48u    1.0412u   
 0.         1.5        0.        -259.9E-18 -822.E-21   259.9E-18 -822.E-21  
 0.1        1.5        0.         138.41f    3.1893u   -138.41f    3.1893u   
 0.2        1.5        0.         277.09f    5.6559u   -277.09f    5.6559u   
 0.3        1.5        0.         415.76f    7.4127u   -415.76f    7.4127u   
 0.4        1.5        0.         554.44f    8.4702u   -554.44f    8.4702u   
 0.5        1.5        0.         693.14f    8.7643u   -693.14f    8.7643u   
 0.6        1.5        0.         831.87f    8.8059u   -831.87f    8.8059u   
 0.7        1.5        0.         970.74f    8.846u    -970.74f    8.846u    
 0.8        1.5        0.         1.1101p    8.8846u   -1.1101p    8.8846u   
 0.9        1.5        0.         1.2511p    8.9219u   -1.2511p    8.9219u   
 1.         1.5        0.         1.3976p    8.9581u   -1.3976p    8.9581u   
 1.1        1.5        0.         1.5631p    8.9933u   -1.5631p    8.9933u   
 1.2        1.5        0.         1.7934p    9.0275u   -1.7934p    9.0275u   
 1.3        1.5        0.         2.2449p    9.0609u   -2.2449p    9.0609u   
 1.4        1.5        0.         3.451p     9.0936u   -3.451p     9.0936u   
 1.5        1.5        0.         7.2332p    9.1255u   -7.2332p    9.1255u   
 1.6        1.5        0.         19.807p    9.1569u   -19.807p    9.1568u   
 1.7        1.5        0.         62.389p    9.1876u   -62.389p    9.1876u   
 1.8        1.5        0.         207.4p     9.2177u   -207.4p     9.2177u   
 1.9        1.5        0.         702.04p    9.2474u   -702.04p    9.2474u   
 2.         1.5        0.         2.3902n    9.2766u   -2.3902n    9.2765u   
 2.1        1.5        0.         8.1529n    9.3053u   -8.1529n    9.3053u   
 2.2        1.5        0.         27.826n    9.3336u   -27.826n    9.3336u   
 2.3        1.5        0.         94.989n    9.3614u   -94.989n    9.3615u   
 2.4        1.5        0.         478.38n    9.389u    -478.38n    9.389u    
 2.5        1.5        0.         1.2563u    9.4162u   -1.2563u    9.4162u   
 2.6        1.5        0.         2.4107u    9.4431u   -2.4107u    9.4431u   
 2.7        1.5        0.         3.9474u    9.4696u   -3.9474u    9.4696u   
 2.8        1.5        0.         5.8719u    9.4959u   -5.8719u    9.4959u   
 2.9        1.5        0.         8.1888u    9.5218u   -8.1888u    9.5219u   
 3.         1.5        0.         10.902u    9.5476u   -10.902u    9.5476u   
 3.1        1.5        0.         14.016u    9.5731u   -14.016u    9.573u    
 3.2        1.5        0.         17.534u    9.5983u   -17.534u    9.5983u   
 3.3        1.5        0.         21.458u    9.6233u   -21.458u    9.6233u   
 3.4        1.5        0.         25.79u     9.6481u   -25.79u     9.6481u   
 3.5        1.5        0.         30.534u    9.6726u   -30.534u    9.6727u   
 3.6        1.5        0.         35.69u     9.697u    -35.69u     9.697u    
 3.7        1.5        0.         41.259u    9.7213u   -41.259u    9.7212u   
 3.8        1.5        0.         46.283u    9.7453u   -46.283u    9.7453u   
 3.9        1.5        0.         51.443u    9.7692u   -51.443u    9.7691u   
 4.         1.5        0.         56.839u    9.7928u   -56.839u    9.7928u   
 4.1        1.5        0.         62.47u     9.8162u   -62.47u     9.8163u   
 4.2        1.5        0.         68.333u    9.8397u   -68.333u    9.8397u   
 4.3        1.5        0.         74.426u    9.863u    -74.426u    9.8629u   
 4.4        1.5        0.         80.748u    9.886u    -80.748u    9.886u    
 4.5        1.5        0.         87.297u    9.909u    -87.297u    9.9089u   
 4.6        1.5        0.         94.073u    9.9318u   -94.073u    9.9318u   
 4.7        1.5        0.         101.07u    9.9545u   -101.07u    9.9545u   
 4.8        1.5        0.         108.3u     9.9771u   -108.3u     9.9771u   
 4.9        1.5        0.         115.75u    9.9995u   -115.75u    9.9995u   
 5.         1.5        0.         123.42u    10.022u   -123.42u    10.022u   
 0.         2.         0.        -417.8E-18  25.64E-18  417.8E-18  25.64E-18 
 0.1        2.         0.         138.26f    5.7046u   -138.26f    5.7046u   
 0.2        2.         0.         276.94f    10.693u   -276.94f    10.693u   
 0.3        2.         0.         415.62f    14.979u   -415.62f    14.979u   
 0.4        2.         0.         554.29f    18.572u   -554.29f    18.572u   
 0.5        2.         0.         692.97f    21.48u    -692.97f    21.48u    
 0.6        2.         0.         831.65f    23.711u   -831.65f    23.711u   
 0.7        2.         0.         970.33f    25.271u   -970.33f    25.271u   
 0.8        2.         0.         1.109p     25.694u   -1.109p     25.694u   
 0.9        2.         0.         1.2477p    25.771u   -1.2477p    25.771u   
 1.         2.         0.         1.3864p    25.846u   -1.3864p    25.846u   
 1.1        2.         0.         1.5251p    25.92u    -1.5251p    25.92u    
 1.2        2.         0.         1.664p     25.991u   -1.664p     25.991u   
 1.3        2.         0.         1.8034p    26.061u   -1.8034p    26.061u   
 1.4        2.         0.         1.9445p    26.13u    -1.9445p    26.13u    
 1.5        2.         0.         2.0915p    26.197u   -2.0915p    26.197u   
 1.6        2.         0.         2.2584p    26.263u   -2.2584p    26.263u   
 1.7        2.         0.         2.4936p    26.328u   -2.4936p    26.328u   
 1.8        2.         0.         2.9613p    26.393u   -2.9613p    26.393u   
 1.9        2.         0.         4.2225p    26.456u   -4.2225p    26.456u   
 2.         2.         0.         8.1907p    26.518u   -8.1907p    26.518u   
 2.1        2.         0.         21.396p    26.579u   -21.396p    26.579u   
 2.2        2.         0.         66.118p    26.64u    -66.118p    26.64u    
 2.3        2.         0.         218.4p     26.7u     -218.4p     26.7u     
 2.4        2.         0.         737.76p    26.759u   -737.76p    26.759u   
 2.5        2.         0.         2.5101n    26.818u   -2.5101n    26.818u   
 2.6        2.         0.         8.5594n    26.876u   -8.5594n    26.876u   
 2.7        2.         0.         29.209n    26.933u   -29.209n    26.933u   
 2.8        2.         0.         99.703n    26.99u    -99.703n    26.99u    
 2.9        2.         0.         502.08n    27.046u   -502.08n    27.046u   
 3.         2.         0.         1.3042u    27.102u   -1.3042u    27.102u   
 3.1        2.         0.         2.4904u    27.158u   -2.4904u    27.158u   
 3.2        2.         0.         4.0667u    27.213u   -4.0667u    27.213u   
 3.3        2.         0.         6.0385u    27.267u   -6.0385u    27.267u   
 3.4        2.         0.         8.4108u    27.322u   -8.4108u    27.322u   
 3.5        2.         0.         11.188u    27.376u   -11.188u    27.376u   
 3.6        2.         0.         14.374u    27.429u   -14.374u    27.429u   
 3.7        2.         0.         17.971u    27.482u   -17.971u    27.482u   
 3.8        2.         0.         21.984u    27.535u   -21.984u    27.535u   
 3.9        2.         0.         26.414u    27.588u   -26.414u    27.588u   
 4.         2.         0.         31.264u    27.64u    -31.264u    27.64u    
 4.1        2.         0.         36.535u    27.692u   -36.535u    27.692u   
 4.2        2.         0.         42.228u    27.744u   -42.228u    27.744u   
 4.3        2.         0.         47.345u    27.795u   -47.345u    27.795u   
 4.4        2.         0.         52.619u    27.847u   -52.619u    27.847u   
 4.5        2.         0.         58.134u    27.898u   -58.134u    27.898u   
 4.6        2.         0.         63.89u     27.948u   -63.89u     27.948u   
 4.7        2.         0.         69.882u    27.999u   -69.882u    27.999u   
 4.8        2.         0.         76.111u    28.049u   -76.111u    28.049u   
 4.9        2.         0.         82.575u    28.099u   -82.575u    28.099u   
 5.         2.         0.         89.271u    28.149u   -89.271u    28.149u   
 0.         2.5        0.        -551.9E-18  89.83E-18  551.9E-18  89.83E-18 
 0.1        2.5        0.         138.13f    8.2126u   -138.13f    8.2126u   
 0.2        2.5        0.         276.81f    15.716u   -276.81f    15.716u   
 0.3        2.5        0.         415.48f    22.522u   -415.48f    22.522u   
 0.4        2.5        0.         554.16f    28.643u   -554.16f    28.643u   
 0.5        2.5        0.         692.84f    34.086u   -692.84f    34.086u   
 0.6        2.5        0.         831.52f    38.858u   -831.52f    38.858u   
 0.7        2.5        0.         970.2f     42.965u   -970.2f     42.965u   
 0.8        2.5        0.         1.1089p    46.413u   -1.1089p    46.413u   
 0.9        2.5        0.         1.2476p    49.204u   -1.2476p    49.204u   
 1.         2.5        0.         1.3862p    50.951u   -1.3862p    50.951u   
 1.1        2.5        0.         1.5249p    51.071u   -1.5249p    51.071u   
 1.2        2.5        0.         1.6636p    51.188u   -1.6636p    51.188u   
 1.3        2.5        0.         1.8023p    51.303u   -1.8023p    51.303u   
 1.4        2.5        0.         1.941p     51.416u   -1.941p     51.416u   
 1.5        2.5        0.         2.0797p    51.527u   -2.0797p    51.527u   
 1.6        2.5        0.         2.2184p    51.637u   -2.2184p    51.637u   
 1.7        2.5        0.         2.3573p    51.744u   -2.3573p    51.744u   
 1.8        2.5        0.         2.4967p    51.851u   -2.4967p    51.851u   
 1.9        2.5        0.         2.638p     51.955u   -2.638p     51.955u   
 2.         2.5        0.         2.7853p    52.059u   -2.7853p    52.059u   
 2.1        2.5        0.         2.9536p    52.161u   -2.9536p    52.161u   
 2.2        2.5        0.         3.1933p    52.262u   -3.1933p    52.262u   
 2.3        2.5        0.         3.6766p    52.363u   -3.6766p    52.363u   
 2.4        2.5        0.         4.9905p    52.462u   -4.9905p    52.462u   
 2.5        2.5        0.         9.1384p    52.56u    -9.1384p    52.56u    
 2.6        2.5        0.         22.955p    52.657u   -22.955p    52.657u   
 2.7        2.5        0.         69.762p    52.754u   -69.762p    52.754u   
 2.8        2.5        0.         229.15p    52.85u    -229.15p    52.85u    
 2.9        2.5        0.         772.78p    52.945u   -772.78p    52.945u   
 3.         2.5        0.         2.628n     53.039u   -2.628n     53.039u   
 3.1        2.5        0.         8.9604n    53.133u   -8.9604n    53.133u   
 3.2        2.5        0.         30.578n    53.226u   -30.578n    53.226u   
 3.3        2.5        0.         104.38n    53.319u   -104.38n    53.319u   
 3.4        2.5        0.         525.48n    53.411u   -525.48n    53.411u   
 3.5        2.5        0.         1.3519u    53.502u   -1.3519u    53.502u   
 3.6        2.5        0.         2.5703u    53.593u   -2.5703u    53.593u   
 3.7        2.5        0.         4.1869u    53.684u   -4.1869u    53.684u   
 3.8        2.5        0.         6.2073u    53.774u   -6.2073u    53.774u   
 3.9        2.5        0.         8.6364u    53.863u   -8.6364u    53.863u   
 4.         2.5        0.         11.479u    53.953u   -11.479u    53.953u   
 4.1        2.5        0.         14.739u    54.041u   -14.739u    54.041u   
 4.2        2.5        0.         18.419u    54.13u    -18.419u    54.13u    
 4.3        2.5        0.         22.524u    54.218u   -22.524u    54.218u   
 4.4        2.5        0.         27.055u    54.306u   -27.055u    54.306u   
 4.5        2.5        0.         32.014u    54.393u   -32.014u    54.393u   
 4.6        2.5        0.         37.404u    54.48u    -37.404u    54.48u    
 4.7        2.5        0.         43.226u    54.567u   -43.226u    54.567u   
 4.8        2.5        0.         48.441u    54.654u   -48.441u    54.654u   
 4.9        2.5        0.         53.834u    54.74u    -53.834u    54.74u    
 5.         2.5        0.         59.473u    54.826u   -59.473u    54.826u   
 0.         3.         0.        -630.E-18   155.6E-18  630.E-18   155.6E-18 
 0.1        3.         0.         138.66f    10.713u   -138.66f    10.713u   
 0.2        3.         0.         277.33f    20.723u   -277.33f    20.723u   
 0.3        3.         0.         415.99f    30.044u   -415.99f    30.044u   
 0.4        3.         0.         554.65f    38.684u   -554.65f    38.684u   
 0.5        3.         0.         693.32f    46.654u   -693.32f    46.654u   
 0.6        3.         0.         831.98f    53.959u   -831.98f    53.959u   
 0.7        3.         0.         970.64f    60.607u   -970.64f    60.607u   
 0.8        3.         0.         1.1093p    66.6u     -1.1093p    66.6u     
 0.9        3.         0.         1.248p     71.945u   -1.248p     71.945u   
 1.         3.         0.         1.3866p    76.644u   -1.3866p    76.644u   
 1.1        3.         0.         1.5253p    80.701u   -1.5253p    80.701u   
 1.2        3.         0.         1.664p     83.702u   -1.664p     83.702u   
 1.3        3.         0.         1.8026p    83.868u   -1.8026p    83.868u   
 1.4        3.         0.         1.9413p    84.032u   -1.9413p    84.032u   
 1.5        3.         0.         2.08p      84.192u   -2.08p      84.193u   
 1.6        3.         0.         2.2186p    84.351u   -2.2186p    84.351u   
 1.7        3.         0.         2.3573p    84.507u   -2.3573p    84.507u   
 1.8        3.         0.         2.4959p    84.662u   -2.4959p    84.662u   
 1.9        3.         0.         2.6346p    84.815u   -2.6346p    84.815u   
 2.         3.         0.         2.7733p    84.966u   -2.7733p    84.966u   
 2.1        3.         0.         2.912p     85.115u   -2.912p     85.115u   
 2.2        3.         0.         3.0509p    85.263u   -3.0509p    85.263u   
 2.3        3.         0.         3.1904p    85.41u    -3.1904p    85.41u    
 2.4        3.         0.         3.3317p    85.555u   -3.3317p    85.555u   
 2.5        3.         0.         3.4794p    85.699u   -3.4794p    85.699u   
 2.6        3.         0.         3.649p     85.843u   -3.649p     85.843u   
 2.7        3.         0.         3.8931p    85.985u   -3.8931p    85.985u   
 2.8        3.         0.         4.3915p    86.126u   -4.3915p    86.126u   
 2.9        3.         0.         5.7571p    86.266u   -5.7571p    86.266u   
 3.         3.         0.         10.081p    86.405u   -10.081p    86.405u   
 3.1        3.         0.         24.5p      86.544u   -24.5p      86.544u   
 3.2        3.         0.         73.368p    86.681u   -73.368p    86.681u   
 3.3        3.         0.         239.81p    86.818u   -239.81p    86.818u   
 3.4        3.         0.         807.55p    86.954u   -807.55p    86.954u   
 3.5        3.         0.         2.7453n    87.09u    -2.7453n    87.09u    
 3.6        3.         0.         9.3605n    87.225u   -9.3605n    87.225u   
 3.7        3.         0.         31.947n    87.359u   -31.947n    87.359u   
 3.8        3.         0.         109.07n    87.493u   -109.07n    87.493u   
 3.9        3.         0.         548.8n     87.626u   -548.8n     87.626u   
 4.         3.         0.         1.3999u    87.759u   -1.3999u    87.759u   
 4.1        3.         0.         2.6511u    87.891u   -2.6511u    87.891u   
 4.2        3.         0.         4.3089u    88.023u   -4.3089u    88.023u   
 4.3        3.         0.         6.3791u    88.154u   -6.3791u    88.154u   
 4.4        3.         0.         8.8668u    88.285u   -8.8668u    88.285u   
 4.5        3.         0.         11.777u    88.416u   -11.777u    88.416u   
 4.6        3.         0.         15.113u    88.546u   -15.113u    88.546u   
 4.7        3.         0.         18.879u    88.676u   -18.879u    88.676u   
 4.8        3.         0.         23.079u    88.805u   -23.079u    88.805u   
 4.9        3.         0.         27.714u    88.934u   -27.714u    88.934u   
 5.         3.         0.         32.788u    89.063u   -32.788u    89.063u   
 0.         3.5        0.        -3.934E-18  78.82E-18  3.934E-18  78.82E-18 
 0.1        3.5        0.         138.66f    12.767u   -138.66f    12.767u   
 0.2        3.5        0.         277.33f    24.86u    -277.33f    24.86u    
 0.3        3.5        0.         415.99f    36.29u    -415.99f    36.29u    
 0.4        3.5        0.         554.65f    47.069u   -554.65f    47.069u   
 0.5        3.5        0.         693.32f    57.203u   -693.32f    57.203u   
 0.6        3.5        0.         831.98f    66.702u   -831.98f    66.702u   
 0.7        3.5        0.         970.64f    75.569u   -970.64f    75.569u   
 0.8        3.5        0.         1.1093p    83.811u   -1.1093p    83.811u   
 0.9        3.5        0.         1.248p     91.431u   -1.248p     91.431u   
 1.         3.5        0.         1.3866p    98.433u   -1.3866p    98.433u   
 1.1        3.5        0.         1.5253p    104.82u   -1.5253p    104.82u   
 1.2        3.5        0.         1.664p     110.59u   -1.664p     110.59u   
 1.3        3.5        0.         1.8026p    115.76u   -1.8026p    115.76u   
 1.4        3.5        0.         1.9413p    119.52u   -1.9413p    119.52u   
 1.5        3.5        0.         2.08p      119.73u   -2.08p      119.73u   
 1.6        3.5        0.         2.2186p    119.93u   -2.2186p    119.93u   
 1.7        3.5        0.         2.3573p    120.13u   -2.3573p    120.13u   
 1.8        3.5        0.         2.4959p    120.33u   -2.4959p    120.33u   
 1.9        3.5        0.         2.6346p    120.52u   -2.6346p    120.52u   
 2.         3.5        0.         2.7733p    120.72u   -2.7733p    120.72u   
 2.1        3.5        0.         2.9119p    120.91u   -2.9119p    120.91u   
 2.2        3.5        0.         3.0506p    121.1u    -3.0506p    121.1u    
 2.3        3.5        0.         3.1893p    121.29u   -3.1893p    121.29u   
 2.4        3.5        0.         3.3279p    121.47u   -3.3279p    121.47u   
 2.5        3.5        0.         3.4666p    121.66u   -3.4666p    121.66u   
 2.6        3.5        0.         3.6053p    121.84u   -3.6053p    121.84u   
 2.7        3.5        0.         3.7443p    122.03u   -3.7443p    122.03u   
 2.8        3.5        0.         3.8837p    122.21u   -3.8837p    122.21u   
 2.9        3.5        0.         4.0252p    122.39u   -4.0252p    122.39u   
 3.         3.5        0.         4.1733p    122.57u   -4.1733p    122.57u   
 3.1        3.5        0.         4.3441p    122.75u   -4.3441p    122.75u   
 3.2        3.5        0.         4.5926p    122.93u   -4.5926p    122.93u   
 3.3        3.5        0.         5.1059p    123.11u   -5.1059p    123.11u   
 3.4        3.5        0.         6.5227p    123.29u   -6.5227p    123.29u   
 3.5        3.5        0.         11.022p    123.46u   -11.022p    123.46u   
 3.6        3.5        0.         26.042p    123.64u   -26.042p    123.64u   
 3.7        3.5        0.         76.967p    123.82u   -76.967p    123.82u   
 3.8        3.5        0.         250.46p    123.99u   -250.46p    123.99u   
 3.9        3.5        0.         842.38p    124.16u   -842.38p    124.16u   
 4.         3.5        0.         2.863n     124.34u   -2.863n     124.34u   
 4.1        3.5        0.         9.7626n    124.51u   -9.7626n    124.51u   
 4.2        3.5        0.         33.324n    124.68u   -33.324n    124.68u   
 4.3        3.5        0.         113.79n    124.86u   -113.79n    124.86u   
 4.4        3.5        0.         572.22n    125.03u   -572.22n    125.03u   
 4.5        3.5        0.         1.4483u    125.2u    -1.4483u    125.2u    
 4.6        3.5        0.         2.7331u    125.37u   -2.7331u    125.37u   
 4.7        3.5        0.         4.4333u    125.54u   -4.4333u    125.54u   
 4.8        3.5        0.         6.5548u    125.71u   -6.5548u    125.71u   
 4.9        3.5        0.         9.103u     125.88u   -9.103u     125.88u   
 5.         3.5        0.         12.083u    126.05u   -12.083u    126.05u   
 0.         4.         0.         81.E-21   -2.005E-18 -81.E-21   -2.005E-18 
 0.1        4.         0.         138.66f    14.727u   -138.66f    14.727u   
 0.2        4.         0.         277.33f    28.804u   -277.33f    28.804u   
 0.3        4.         0.         415.99f    42.245u   -415.99f    42.245u   
 0.4        4.         0.         554.65f    55.059u   -554.65f    55.059u   
 0.5        4.         0.         693.32f    67.254u   -693.32f    67.254u   
 0.6        4.         0.         831.98f    78.837u   -831.98f    78.837u   
 0.7        4.         0.         970.64f    89.814u   -970.64f    89.814u   
 0.8        4.         0.         1.1093p    100.19u   -1.1093p    100.19u   
 0.9        4.         0.         1.248p     109.97u   -1.248p     109.97u   
 1.         4.         0.         1.3866p    119.15u   -1.3866p    119.15u   
 1.1        4.         0.         1.5253p    127.74u   -1.5253p    127.74u   
 1.2        4.         0.         1.664p     135.75u   -1.664p     135.75u   
 1.3        4.         0.         1.8026p    143.16u   -1.8026p    143.16u   
 1.4        4.         0.         1.9413p    150.u     -1.9413p    150.u     
 1.5        4.         0.         2.08p      156.25u   -2.08p      156.25u   
 1.6        4.         0.         2.2186p    159.54u   -2.2186p    159.54u   
 1.7        4.         0.         2.3573p    159.78u   -2.3573p    159.78u   
 1.8        4.         0.         2.4959p    160.03u   -2.4959p    160.03u   
 1.9        4.         0.         2.6346p    160.28u   -2.6346p    160.28u   
 2.         4.         0.         2.7733p    160.52u   -2.7733p    160.52u   
 2.1        4.         0.         2.9119p    160.76u   -2.9119p    160.76u   
 2.2        4.         0.         3.0506p    161.u     -3.0506p    161.u     
 2.3        4.         0.         3.1893p    161.24u   -3.1893p    161.24u   
 2.4        4.         0.         3.3279p    161.47u   -3.3279p    161.47u   
 2.5        4.         0.         3.4666p    161.71u   -3.4666p    161.71u   
 2.6        4.         0.         3.6053p    161.94u   -3.6053p    161.94u   
 2.7        4.         0.         3.7439p    162.17u   -3.7439p    162.17u   
 2.8        4.         0.         3.8826p    162.4u    -3.8826p    162.4u    
 2.9        4.         0.         4.0213p    162.63u   -4.0213p    162.63u   
 3.         4.         0.         4.1599p    162.86u   -4.1599p    162.86u   
 3.1        4.         0.         4.2987p    163.09u   -4.2987p    163.09u   
 3.2        4.         0.         4.4376p    163.31u   -4.4376p    163.31u   
 3.3        4.         0.         4.5771p    163.54u   -4.5771p    163.54u   
 3.4        4.         0.         4.7186p    163.76u   -4.7186p    163.76u   
 3.5        4.         0.         4.8671p    163.98u   -4.8671p    163.98u   
 3.6        4.         0.         5.0392p    164.21u   -5.0392p    164.21u   
 3.7        4.         0.         5.2921p    164.43u   -5.2921p    164.43u   
 3.8        4.         0.         5.8203p    164.65u   -5.8203p    164.65u   
 3.9        4.         0.         7.2883p    164.87u   -7.2883p    164.87u   
 4.         4.         0.         11.964p    165.09u   -11.964p    165.09u   
 4.1        4.         0.         27.586p    165.31u   -27.586p    165.31u   
 4.2        4.         0.         80.581p    165.53u   -80.581p    165.53u   
 4.3        4.         0.         261.18p    165.75u   -261.18p    165.75u   
 4.4        4.         0.         877.51p    165.97u   -877.51p    165.97u   
 4.5        4.         0.         2.982n     166.19u   -2.982n     166.19u   
 4.6        4.         0.         10.169n    166.4u    -10.169n    166.4u    
 4.7        4.         0.         34.72n     166.62u   -34.72n     166.62u   
 4.8        4.         0.         118.58n    166.84u   -118.58n    166.84u   
 4.9        4.         0.         595.87n    167.05u   -595.87n    167.05u   
 5.         4.         0.         1.4975u    167.27u   -1.4975u    167.27u   
 0.         4.5        0.         47.E-21    154.E-21  -47.E-21    154.E-21  
 0.1        4.5        0.         138.66f    16.631u   -138.66f    16.631u   
 0.2        4.5        0.         277.33f    32.635u   -277.33f    32.635u   
 0.3        4.5        0.         415.99f    48.024u   -415.99f    48.024u   
 0.4        4.5        0.         554.65f    62.807u   -554.65f    62.807u   
 0.5        4.5        0.         693.32f    76.993u   -693.32f    76.993u   
 0.6        4.5        0.         831.98f    90.587u   -831.98f    90.587u   
 0.7        4.5        0.         970.64f    103.6u    -970.64f    103.6u    
 0.8        4.5        0.         1.1093p    116.02u   -1.1093p    116.02u   
 0.9        4.5        0.         1.248p     127.88u   -1.248p     127.88u   
 1.         4.5        0.         1.3866p    139.15u   -1.3866p    139.15u   
 1.1        4.5        0.         1.5253p    149.86u   -1.5253p    149.86u   
 1.2        4.5        0.         1.664p     160.u     -1.664p     160.u     
 1.3        4.5        0.         1.8026p    169.57u   -1.8026p    169.57u   
 1.4        4.5        0.         1.9413p    178.58u   -1.9413p    178.58u   
 1.5        4.5        0.         2.08p      187.02u   -2.08p      187.02u   
 1.6        4.5        0.         2.2186p    194.91u   -2.2186p    194.91u   
 1.7        4.5        0.         2.3573p    202.23u   -2.3573p    202.23u   
 1.8        4.5        0.         2.4959p    203.22u   -2.4959p    203.22u   
 1.9        4.5        0.         2.6346p    203.52u   -2.6346p    203.52u   
 2.         4.5        0.         2.7733p    203.81u   -2.7733p    203.81u   
 2.1        4.5        0.         2.9119p    204.1u    -2.9119p    204.1u    
 2.2        4.5        0.         3.0506p    204.39u   -3.0506p    204.39u   
 2.3        4.5        0.         3.1893p    204.68u   -3.1893p    204.68u   
 2.4        4.5        0.         3.3279p    204.97u   -3.3279p    204.97u   
 2.5        4.5        0.         3.4666p    205.25u   -3.4666p    205.25u   
 2.6        4.5        0.         3.6053p    205.53u   -3.6053p    205.53u   
 2.7        4.5        0.         3.7439p    205.82u   -3.7439p    205.82u   
 2.8        4.5        0.         3.8826p    206.1u    -3.8826p    206.1u    
 2.9        4.5        0.         4.0212p    206.38u   -4.0212p    206.38u   
 3.         4.5        0.         4.1599p    206.65u   -4.1599p    206.65u   
 3.1        4.5        0.         4.2986p    206.93u   -4.2986p    206.93u   
 3.2        4.5        0.         4.4372p    207.21u   -4.4372p    207.21u   
 3.3        4.5        0.         4.5759p    207.48u   -4.5759p    207.48u   
 3.4        4.5        0.         4.7146p    207.75u   -4.7146p    207.75u   
 3.5        4.5        0.         4.8533p    208.03u   -4.8533p    208.03u   
 3.6        4.5        0.         4.992p     208.3u    -4.992p     208.3u    
 3.7        4.5        0.         5.1309p    208.57u   -5.1309p    208.57u   
 3.8        4.5        0.         5.2705p    208.84u   -5.2705p    208.84u   
 3.9        4.5        0.         5.4121p    209.11u   -5.4121p    209.11u   
 4.         4.5        0.         5.561p     209.38u   -5.561p     209.38u   
 4.1        4.5        0.         5.7344p    209.65u   -5.7344p    209.65u   
 4.2        4.5        0.         5.9916p    209.92u   -5.9916p    209.92u   
 4.3        4.5        0.         6.5349p    210.19u   -6.5349p    210.19u   
 4.4        4.5        0.         8.0545p    210.46u   -8.0545p    210.46u   
 4.5        4.5        0.         12.907p    210.72u   -12.907p    210.72u   
 4.6        4.5        0.         29.14p     210.99u   -29.14p     210.99u   
 4.7        4.5        0.         84.231p    211.25u   -84.231p    211.25u   
 4.8        4.5        0.         272.03p    211.52u   -272.03p    211.52u   
 4.9        4.5        0.         913.13p    211.79u   -913.13p    211.79u   
 5.         4.5        0.         3.1027n    212.05u   -3.1027n    212.05u   
 0.         5.         0.         0.        -73.E-21    0.        -73.E-21   
 0.1        5.         0.         138.66f    18.49u    -138.66f    18.49u    
 0.2        5.         0.         277.33f    36.371u   -277.33f    36.371u   
 0.3        5.         0.         415.99f    53.656u   -415.99f    53.656u   
 0.4        5.         0.         554.65f    70.354u   -554.65f    70.354u   
 0.5        5.         0.         693.32f    86.473u   -693.32f    86.473u   
 0.6        5.         0.         831.98f    102.02u   -831.98f    102.02u   
 0.7        5.         0.         970.64f    117.u     -970.64f    117.u     
 0.8        5.         0.         1.1093p    131.41u   -1.1093p    131.41u   
 0.9        5.         0.         1.248p     145.27u   -1.248p     145.27u   
 1.         5.         0.         1.3866p    158.57u   -1.3866p    158.57u   
 1.1        5.         0.         1.5253p    171.32u   -1.5253p    171.32u   
 1.2        5.         0.         1.664p     183.51u   -1.664p     183.51u   
 1.3        5.         0.         1.8026p    195.16u   -1.8026p    195.16u   
 1.4        5.         0.         1.9413p    206.27u   -1.9413p    206.27u   
 1.5        5.         0.         2.08p      216.82u   -2.08p      216.82u   
 1.6        5.         0.         2.2186p    226.84u   -2.2186p    226.84u   
 1.7        5.         0.         2.3573p    236.31u   -2.3573p    236.31u   
 1.8        5.         0.         2.4959p    245.24u   -2.4959p    245.24u   
 1.9        5.         0.         2.6346p    249.69u   -2.6346p    249.69u   
 2.         5.         0.         2.7733p    250.03u   -2.7733p    250.03u   
 2.1        5.         0.         2.9119p    250.38u   -2.9119p    250.38u   
 2.2        5.         0.         3.0506p    250.72u   -3.0506p    250.72u   
 2.3        5.         0.         3.1893p    251.06u   -3.1893p    251.06u   
 2.4        5.         0.         3.3279p    251.4u    -3.3279p    251.4u    
 2.5        5.         0.         3.4666p    251.73u   -3.4666p    251.74u   
 2.6        5.         0.         3.6053p    252.07u   -3.6053p    252.07u   
 2.7        5.         0.         3.7439p    252.4u    -3.7439p    252.4u    
 2.8        5.         0.         3.8826p    252.74u   -3.8826p    252.74u   
 2.9        5.         0.         4.0212p    253.07u   -4.0212p    253.07u   
 3.         5.         0.         4.1599p    253.4u    -4.1599p    253.4u    
 3.1        5.         0.         4.2986p    253.72u   -4.2986p    253.72u   
 3.2        5.         0.         4.4372p    254.05u   -4.4372p    254.05u   
 3.3        5.         0.         4.5759p    254.38u   -4.5759p    254.38u   
 3.4        5.         0.         4.7146p    254.7u    -4.7146p    254.7u    
 3.5        5.         0.         4.8532p    255.03u   -4.8532p    255.03u   
 3.6        5.         0.         4.9919p    255.35u   -4.9919p    255.35u   
 3.7        5.         0.         5.1306p    255.67u   -5.1306p    255.67u   
 3.8        5.         0.         5.2692p    256.u     -5.2692p    256.u     
 3.9        5.         0.         5.4079p    256.32u   -5.4079p    256.32u   
 4.         5.         0.         5.5466p    256.64u   -5.5466p    256.64u   
 4.1        5.         0.         5.6853p    256.96u   -5.6853p    256.96u   
 4.2        5.         0.         5.8242p    257.28u   -5.8242p    257.28u   
 4.3        5.         0.         5.9638p    257.6u    -5.9638p    257.6u    
 4.4        5.         0.         6.1056p    257.92u   -6.1056p    257.92u   
 4.5        5.         0.         6.2548p    258.23u   -6.2548p    258.23u   
 4.6        5.         0.         6.4295p    258.55u   -6.4295p    258.55u   
 4.7        5.         0.         6.6912p    258.87u   -6.6912p    258.87u   
 4.8        5.         0.         7.2497p    259.19u   -7.2497p    259.19u   
 4.9        5.         0.         8.8217p    259.5u    -8.8217p    259.5u    
 5.         5.         0.         13.855p    259.82u   -13.855p    259.82u   
#           V(1)       V(6)       I(VPU)     I(VPD)     id(MPU)    id(MPD)   
 0.         0.         0.         247.94u    0.        -247.94u    9.7043n   
 0.5        0.5        0.         203.09u    95.923n   -203.09u    95.916n   
 1.         1.         0.         161.48u    1.0412u   -161.48u    1.0412u   
 1.5        1.5        0.         123.42u    10.022u   -123.42u    10.022u   
 2.         2.         0.         89.271u    28.149u   -89.271u    28.149u   
 2.5        2.5        0.         59.473u    54.826u   -59.473u    54.826u   
 3.         3.         0.         32.788u    89.063u   -32.788u    89.063u   
 3.5        3.5        0.         12.083u    126.05u   -12.083u    126.05u   
 4.         4.         0.         1.4975u    167.27u   -1.4975u    167.27u   
 4.5        4.5        0.         3.1027n    212.05u   -3.1027n    212.05u   
 5.         5.         0.         13.855p    259.82u   -13.855p    259.82u   
 0.         0.        -1.         240.2u     0.        -240.2u     1.953n    
 0.5        0.5       -1.         195.43u    0.        -195.43u    20.283n   
 1.         1.        -1.         153.96u    211.83n   -153.96u    211.83n   
 1.5        1.5       -1.         116.13u    3.2419u   -116.13u    3.2418u   
 2.         2.        -1.         82.335u    16.448u   -82.335u    16.448u   
 2.5        2.5       -1.         53.07u     39.231u   -53.07u     39.231u   
 3.         3.        -1.         26.117u    70.515u   -26.117u    70.515u   
 3.5        3.5       -1.         7.8608u    107.91u   -7.8608u    107.91u   
 4.         4.        -1.         233.97n    148.12u   -233.97n    148.12u   
 4.5        4.5       -1.         352.41p    192.2u    -352.41p    192.2u    
 5.         5.        -1.         8.957p     239.5u    -8.957p     239.5u    
 0.         0.        -2.         233.31u    0.        -233.31u    658.51p   
 0.5        0.5       -2.         188.74u    0.        -188.74u    6.8725n   
 1.         1.        -2.         147.53u    73.097n   -147.53u    73.063n   
 1.5        1.5       -2.         110.05u    778.13n   -110.05u    778.03n   
 2.         2.        -2.         76.724u    9.5307u   -76.724u    9.5307u   
 2.5        2.5       -2.         48.076u    28.757u   -48.076u    28.757u   
 3.         3.        -2.         21.498u    57.218u   -21.498u    57.218u   
 3.5        3.5       -2.         5.2896u    93.56u    -5.2896u    93.56u    
 4.         4.        -2.         43.884n    133.09u   -43.884n    133.09u   
 4.5        4.5       -2.         85.738p    176.34u   -85.738p    176.34u   
 5.         5.        -2.         9.8382p    223.02u   -9.8382p    223.02u   
 0.         0.        -3.         227.19u    0.        -227.19u    284.23p   
 0.5        0.5       -3.         182.85u    0.        -182.85u    2.9026n   
 1.         1.        -3.         141.95u    0.        -141.95u    31.089n   
 1.5        1.5       -3.         104.84u    334.58n   -104.84u    334.5n    
 2.         2.        -3.         71.993u    5.1769u   -71.993u    5.1769u   
 2.5        2.5       -3.         43.13u     21.143u   -43.13u     21.143u   
 3.         3.        -3.         17.977u    46.942u   -17.977u    46.942u   
 3.5        3.5       -3.         3.548u     81.204u   -3.548u     81.204u   
 4.         4.        -3.         13.641n    120.64u   -13.641n    120.64u   
 4.5        4.5       -3.         33.864p    163.03u   -33.864p    163.03u   
 5.         5.        -3.         11.131p    209.06u   -11.131p    209.06u   
 0.         0.        -4.         221.67u    0.        -221.67u    145.56p   
 0.5        0.5       -4.         177.58u    0.        -177.58u    1.4058n   
 1.         1.        -4.         136.99u    0.        -136.99u    15.067n   
 1.5        1.5       -4.         100.27u    163.07n   -100.27u    163.14n   
 2.         2.        -4.         67.884u    2.4597u   -67.884u    2.4597u   
 2.5        2.5       -4.         38.892u    15.419u   -38.892u    15.418u   
 3.         3.        -4.         15.162u    38.7u     -15.162u    38.7u     
 3.5        3.5       -4.         2.3204u    70.959u   -2.3204u    70.959u   
 4.         4.        -4.         5.0272n    110.01u   -5.0272n    110.01u   
 4.5        4.5       -4.         20.66p     151.53u   -20.66p     151.53u   
 5.         5.        -4.         12.493p    196.91u   -12.493p    196.91u   
 0.         0.        -5.         216.64u    0.        -216.64u    86.092p   
 0.5        0.5       -5.         172.81u    0.        -172.81u    751.18p   
 1.         1.        -5.         132.52u    0.        -132.52u    7.9962n   
 1.5        1.5       -5.         96.169u    86.953n   -96.169u    86.918n   
 2.         2.        -5.         64.243u    946.53n   -64.243u    946.51n   
 2.5        2.5       -5.         35.27u     11.048u   -35.27u     11.048u   
 3.         3.        -5.         12.847u    31.942u   -12.847u    31.942u   
 3.5        3.5       -5.         1.4464u    62.271u   -1.4464u    62.271u   
 4.         4.        -5.         2.0883n    100.48u   -2.0883n    100.48u   
 4.5        4.5       -5.         17.193p    141.41u   -17.193p    141.41u   
 5.         5.        -5.         13.872p    186.13u   -13.872p    186.13u   
Gnucap   System status
iterations: op=0, dc=318, tran=0, fourier=0, total=2903
transient timesteps: accepted=0, rejected=0, total=0
nodes: user=6, subckt=0, model=4, total=10
dctran density=76.0%, ac density=76.0%
